<?xml version="1.0" encoding="UTF-8"?>
<testsuite xmlns:xsi="http://www.w3.org/2001/XMLSchema-instance" xsi:noNamespaceSchemaLocation="https://maven.apache.org/surefire/maven-surefire-plugin/xsd/surefire-test-report.xsd" version="3.0.2" name="com.qa.api.tests.GET.GETAPICall" time="6.748" tests="2" errors="0" skipped="0" failures="0">
  <properties>
    <property name="java.specification.version" value="22"/>
    <property name="sun.cpu.isalist" value="amd64"/>
    <property name="sun.jnu.encoding" value="Cp1252"/>
    <property name="java.class.path" value="G:\Eclipse_Workspace\Playwright-Java-API-Testing-main\target\test-classes;G:\Eclipse_Workspace\Playwright-Java-API-Testing-main\target\classes;C:\Users\Deep &apos;Nath&apos; Bagchi\.m2\repository\com\microsoft\playwright\playwright\1.32.0\playwright-1.32.0.jar;C:\Users\Deep &apos;Nath&apos; Bagchi\.m2\repository\org\opentest4j\opentest4j\1.2.0\opentest4j-1.2.0.jar;C:\Users\Deep &apos;Nath&apos; Bagchi\.m2\repository\com\microsoft\playwright\driver\1.32.0\driver-1.32.0.jar;C:\Users\Deep &apos;Nath&apos; Bagchi\.m2\repository\com\microsoft\playwright\driver-bundle\1.32.0\driver-bundle-1.32.0.jar;C:\Users\Deep &apos;Nath&apos; Bagchi\.m2\repository\org\testng\testng\7.0.0\testng-7.0.0.jar;C:\Users\Deep &apos;Nath&apos; Bagchi\.m2\repository\com\beust\jcommander\1.72\jcommander-1.72.jar;C:\Users\Deep &apos;Nath&apos; Bagchi\.m2\repository\com\fasterxml\jackson\core\jackson-databind\2.14.2\jackson-databind-2.14.2.jar;C:\Users\Deep &apos;Nath&apos; Bagchi\.m2\repository\com\fasterxml\jackson\core\jackson-annotations\2.14.2\jackson-annotations-2.14.2.jar;C:\Users\Deep &apos;Nath&apos; Bagchi\.m2\repository\com\fasterxml\jackson\core\jackson-core\2.14.2\jackson-core-2.14.2.jar;C:\Users\Deep &apos;Nath&apos; Bagchi\.m2\repository\org\projectlombok\lombok\1.18.26\lombok-1.18.26.jar;C:\Users\Deep &apos;Nath&apos; Bagchi\.m2\repository\org\hamcrest\hamcrest-library\2.2\hamcrest-library-2.2.jar;C:\Users\Deep &apos;Nath&apos; Bagchi\.m2\repository\org\hamcrest\hamcrest-core\2.2\hamcrest-core-2.2.jar;C:\Users\Deep &apos;Nath&apos; Bagchi\.m2\repository\io\rest-assured\json-path\4.1.0\json-path-4.1.0.jar;C:\Users\Deep &apos;Nath&apos; Bagchi\.m2\repository\org\codehaus\groovy\groovy-json\2.5.6\groovy-json-2.5.6.jar;C:\Users\Deep &apos;Nath&apos; Bagchi\.m2\repository\org\codehaus\groovy\groovy\2.5.6\groovy-2.5.6.jar;C:\Users\Deep &apos;Nath&apos; Bagchi\.m2\repository\io\rest-assured\rest-assured-common\4.1.0\rest-assured-common-4.1.0.jar;C:\Users\Deep &apos;Nath&apos; Bagchi\.m2\repository\org\apache\commons\commons-lang3\3.4\commons-lang3-3.4.jar;C:\Users\Deep &apos;Nath&apos; Bagchi\.m2\repository\com\google\code\gson\gson\2.8.6\gson-2.8.6.jar;C:\Users\Deep &apos;Nath&apos; Bagchi\.m2\repository\org\json\json\20190722\json-20190722.jar;C:\Users\Deep &apos;Nath&apos; Bagchi\.m2\repository\commons-io\commons-io\1.3.2\commons-io-1.3.2.jar;C:\Users\Deep &apos;Nath&apos; Bagchi\.m2\repository\com\googlecode\json-simple\json-simple\1.1.1\json-simple-1.1.1.jar;C:\Users\Deep &apos;Nath&apos; Bagchi\.m2\repository\junit\junit\4.10\junit-4.10.jar;C:\Users\Deep &apos;Nath&apos; Bagchi\.m2\repository\io\rest-assured\json-schema-validator\5.5.0\json-schema-validator-5.5.0.jar;C:\Users\Deep &apos;Nath&apos; Bagchi\.m2\repository\com\github\java-json-tools\json-schema-validator\2.2.14\json-schema-validator-2.2.14.jar;C:\Users\Deep &apos;Nath&apos; Bagchi\.m2\repository\com\github\java-json-tools\jackson-coreutils-equivalence\1.0\jackson-coreutils-equivalence-1.0.jar;C:\Users\Deep &apos;Nath&apos; Bagchi\.m2\repository\com\github\java-json-tools\jackson-coreutils\2.0\jackson-coreutils-2.0.jar;C:\Users\Deep &apos;Nath&apos; Bagchi\.m2\repository\com\github\java-json-tools\msg-simple\1.2\msg-simple-1.2.jar;C:\Users\Deep &apos;Nath&apos; Bagchi\.m2\repository\com\github\java-json-tools\btf\1.3\btf-1.3.jar;C:\Users\Deep &apos;Nath&apos; Bagchi\.m2\repository\com\github\java-json-tools\json-schema-core\1.2.14\json-schema-core-1.2.14.jar;C:\Users\Deep &apos;Nath&apos; Bagchi\.m2\repository\com\github\java-json-tools\uri-template\0.10\uri-template-0.10.jar;C:\Users\Deep &apos;Nath&apos; Bagchi\.m2\repository\org\mozilla\rhino\1.7.7.2\rhino-1.7.7.2.jar;C:\Users\Deep &apos;Nath&apos; Bagchi\.m2\repository\com\sun\mail\mailapi\1.6.2\mailapi-1.6.2.jar;C:\Users\Deep &apos;Nath&apos; Bagchi\.m2\repository\joda-time\joda-time\2.10.5\joda-time-2.10.5.jar;C:\Users\Deep &apos;Nath&apos; Bagchi\.m2\repository\com\googlecode\libphonenumber\libphonenumber\8.11.1\libphonenumber-8.11.1.jar;C:\Users\Deep &apos;Nath&apos; Bagchi\.m2\repository\com\google\code\findbugs\jsr305\3.0.2\jsr305-3.0.2.jar;C:\Users\Deep &apos;Nath&apos; Bagchi\.m2\repository\net\sf\jopt-simple\jopt-simple\5.0.4\jopt-simple-5.0.4.jar;C:\Users\Deep &apos;Nath&apos; Bagchi\.m2\repository\com\google\guava\guava\33.2.1-jre\guava-33.2.1-jre.jar;C:\Users\Deep &apos;Nath&apos; Bagchi\.m2\repository\com\google\guava\failureaccess\1.0.2\failureaccess-1.0.2.jar;C:\Users\Deep &apos;Nath&apos; Bagchi\.m2\repository\com\google\guava\listenablefuture\9999.0-empty-to-avoid-conflict-with-guava\listenablefuture-9999.0-empty-to-avoid-conflict-with-guava.jar;C:\Users\Deep &apos;Nath&apos; Bagchi\.m2\repository\org\checkerframework\checker-qual\3.42.0\checker-qual-3.42.0.jar;C:\Users\Deep &apos;Nath&apos; Bagchi\.m2\repository\com\google\errorprone\error_prone_annotations\2.26.1\error_prone_annotations-2.26.1.jar;C:\Users\Deep &apos;Nath&apos; Bagchi\.m2\repository\com\google\j2objc\j2objc-annotations\3.0.0\j2objc-annotations-3.0.0.jar;C:\Users\Deep &apos;Nath&apos; Bagchi\.m2\repository\org\hamcrest\hamcrest\2.2\hamcrest-2.2.jar;C:\Users\Deep &apos;Nath&apos; Bagchi\.m2\repository\io\rest-assured\rest-assured\5.5.0\rest-assured-5.5.0.jar;C:\Users\Deep &apos;Nath&apos; Bagchi\.m2\repository\org\apache\groovy\groovy\4.0.22\groovy-4.0.22.jar;C:\Users\Deep &apos;Nath&apos; Bagchi\.m2\repository\org\apache\groovy\groovy-xml\4.0.22\groovy-xml-4.0.22.jar;C:\Users\Deep &apos;Nath&apos; Bagchi\.m2\repository\org\apache\httpcomponents\httpclient\4.5.13\httpclient-4.5.13.jar;C:\Users\Deep &apos;Nath&apos; Bagchi\.m2\repository\org\apache\httpcomponents\httpcore\4.4.13\httpcore-4.4.13.jar;C:\Users\Deep &apos;Nath&apos; Bagchi\.m2\repository\commons-logging\commons-logging\1.2\commons-logging-1.2.jar;C:\Users\Deep &apos;Nath&apos; Bagchi\.m2\repository\commons-codec\commons-codec\1.11\commons-codec-1.11.jar;C:\Users\Deep &apos;Nath&apos; Bagchi\.m2\repository\org\apache\httpcomponents\httpmime\4.5.13\httpmime-4.5.13.jar;C:\Users\Deep &apos;Nath&apos; Bagchi\.m2\repository\org\ccil\cowan\tagsoup\tagsoup\1.2.1\tagsoup-1.2.1.jar;C:\Users\Deep &apos;Nath&apos; Bagchi\.m2\repository\io\rest-assured\xml-path\5.5.0\xml-path-5.5.0.jar;C:\Users\Deep &apos;Nath&apos; Bagchi\.m2\repository\org\everit\json\org.everit.json.schema\1.5.1\org.everit.json.schema-1.5.1.jar;C:\Users\Deep &apos;Nath&apos; Bagchi\.m2\repository\commons-validator\commons-validator\1.5.1\commons-validator-1.5.1.jar;C:\Users\Deep &apos;Nath&apos; Bagchi\.m2\repository\commons-beanutils\commons-beanutils\1.9.2\commons-beanutils-1.9.2.jar;C:\Users\Deep &apos;Nath&apos; Bagchi\.m2\repository\commons-digester\commons-digester\1.8.1\commons-digester-1.8.1.jar;C:\Users\Deep &apos;Nath&apos; Bagchi\.m2\repository\commons-collections\commons-collections\3.2.2\commons-collections-3.2.2.jar;"/>
    <property name="java.vm.vendor" value="Oracle Corporation"/>
    <property name="sun.arch.data.model" value="64"/>
    <property name="user.variant" value=""/>
    <property name="java.vendor.url" value="https://java.oracle.com/"/>
    <property name="user.timezone" value="Asia/Calcutta"/>
    <property name="os.name" value="Windows 10"/>
    <property name="java.vm.specification.version" value="22"/>
    <property name="sun.java.launcher" value="SUN_STANDARD"/>
    <property name="user.country" value="IN"/>
    <property name="sun.boot.library.path" value="C:\Program Files\Java\jdk-22\bin"/>
    <property name="sun.java.command" value="C:\Users\Deep &apos;Nath&apos; Bagchi\AppData\Local\Temp\surefire7278214291203716478\surefirebooter-20240818143152679_3.jar C:\Users\Deep &apos;Nath&apos; Bagchi\AppData\Local\Temp\surefire7278214291203716478 2024-08-18T14-31-52_475-jvmRun1 surefire-20240818143152679_1tmp surefire_0-20240818143152679_2tmp"/>
    <property name="jdk.debug" value="release"/>
    <property name="test" value="GETAPICall"/>
    <property name="surefire.test.class.path" value="G:\Eclipse_Workspace\Playwright-Java-API-Testing-main\target\test-classes;G:\Eclipse_Workspace\Playwright-Java-API-Testing-main\target\classes;C:\Users\Deep &apos;Nath&apos; Bagchi\.m2\repository\com\microsoft\playwright\playwright\1.32.0\playwright-1.32.0.jar;C:\Users\Deep &apos;Nath&apos; Bagchi\.m2\repository\org\opentest4j\opentest4j\1.2.0\opentest4j-1.2.0.jar;C:\Users\Deep &apos;Nath&apos; Bagchi\.m2\repository\com\microsoft\playwright\driver\1.32.0\driver-1.32.0.jar;C:\Users\Deep &apos;Nath&apos; Bagchi\.m2\repository\com\microsoft\playwright\driver-bundle\1.32.0\driver-bundle-1.32.0.jar;C:\Users\Deep &apos;Nath&apos; Bagchi\.m2\repository\org\testng\testng\7.0.0\testng-7.0.0.jar;C:\Users\Deep &apos;Nath&apos; Bagchi\.m2\repository\com\beust\jcommander\1.72\jcommander-1.72.jar;C:\Users\Deep &apos;Nath&apos; Bagchi\.m2\repository\com\fasterxml\jackson\core\jackson-databind\2.14.2\jackson-databind-2.14.2.jar;C:\Users\Deep &apos;Nath&apos; Bagchi\.m2\repository\com\fasterxml\jackson\core\jackson-annotations\2.14.2\jackson-annotations-2.14.2.jar;C:\Users\Deep &apos;Nath&apos; Bagchi\.m2\repository\com\fasterxml\jackson\core\jackson-core\2.14.2\jackson-core-2.14.2.jar;C:\Users\Deep &apos;Nath&apos; Bagchi\.m2\repository\org\projectlombok\lombok\1.18.26\lombok-1.18.26.jar;C:\Users\Deep &apos;Nath&apos; Bagchi\.m2\repository\org\hamcrest\hamcrest-library\2.2\hamcrest-library-2.2.jar;C:\Users\Deep &apos;Nath&apos; Bagchi\.m2\repository\org\hamcrest\hamcrest-core\2.2\hamcrest-core-2.2.jar;C:\Users\Deep &apos;Nath&apos; Bagchi\.m2\repository\io\rest-assured\json-path\4.1.0\json-path-4.1.0.jar;C:\Users\Deep &apos;Nath&apos; Bagchi\.m2\repository\org\codehaus\groovy\groovy-json\2.5.6\groovy-json-2.5.6.jar;C:\Users\Deep &apos;Nath&apos; Bagchi\.m2\repository\org\codehaus\groovy\groovy\2.5.6\groovy-2.5.6.jar;C:\Users\Deep &apos;Nath&apos; Bagchi\.m2\repository\io\rest-assured\rest-assured-common\4.1.0\rest-assured-common-4.1.0.jar;C:\Users\Deep &apos;Nath&apos; Bagchi\.m2\repository\org\apache\commons\commons-lang3\3.4\commons-lang3-3.4.jar;C:\Users\Deep &apos;Nath&apos; Bagchi\.m2\repository\com\google\code\gson\gson\2.8.6\gson-2.8.6.jar;C:\Users\Deep &apos;Nath&apos; Bagchi\.m2\repository\org\json\json\20190722\json-20190722.jar;C:\Users\Deep &apos;Nath&apos; Bagchi\.m2\repository\commons-io\commons-io\1.3.2\commons-io-1.3.2.jar;C:\Users\Deep &apos;Nath&apos; Bagchi\.m2\repository\com\googlecode\json-simple\json-simple\1.1.1\json-simple-1.1.1.jar;C:\Users\Deep &apos;Nath&apos; Bagchi\.m2\repository\junit\junit\4.10\junit-4.10.jar;C:\Users\Deep &apos;Nath&apos; Bagchi\.m2\repository\io\rest-assured\json-schema-validator\5.5.0\json-schema-validator-5.5.0.jar;C:\Users\Deep &apos;Nath&apos; Bagchi\.m2\repository\com\github\java-json-tools\json-schema-validator\2.2.14\json-schema-validator-2.2.14.jar;C:\Users\Deep &apos;Nath&apos; Bagchi\.m2\repository\com\github\java-json-tools\jackson-coreutils-equivalence\1.0\jackson-coreutils-equivalence-1.0.jar;C:\Users\Deep &apos;Nath&apos; Bagchi\.m2\repository\com\github\java-json-tools\jackson-coreutils\2.0\jackson-coreutils-2.0.jar;C:\Users\Deep &apos;Nath&apos; Bagchi\.m2\repository\com\github\java-json-tools\msg-simple\1.2\msg-simple-1.2.jar;C:\Users\Deep &apos;Nath&apos; Bagchi\.m2\repository\com\github\java-json-tools\btf\1.3\btf-1.3.jar;C:\Users\Deep &apos;Nath&apos; Bagchi\.m2\repository\com\github\java-json-tools\json-schema-core\1.2.14\json-schema-core-1.2.14.jar;C:\Users\Deep &apos;Nath&apos; Bagchi\.m2\repository\com\github\java-json-tools\uri-template\0.10\uri-template-0.10.jar;C:\Users\Deep &apos;Nath&apos; Bagchi\.m2\repository\org\mozilla\rhino\1.7.7.2\rhino-1.7.7.2.jar;C:\Users\Deep &apos;Nath&apos; Bagchi\.m2\repository\com\sun\mail\mailapi\1.6.2\mailapi-1.6.2.jar;C:\Users\Deep &apos;Nath&apos; Bagchi\.m2\repository\joda-time\joda-time\2.10.5\joda-time-2.10.5.jar;C:\Users\Deep &apos;Nath&apos; Bagchi\.m2\repository\com\googlecode\libphonenumber\libphonenumber\8.11.1\libphonenumber-8.11.1.jar;C:\Users\Deep &apos;Nath&apos; Bagchi\.m2\repository\com\google\code\findbugs\jsr305\3.0.2\jsr305-3.0.2.jar;C:\Users\Deep &apos;Nath&apos; Bagchi\.m2\repository\net\sf\jopt-simple\jopt-simple\5.0.4\jopt-simple-5.0.4.jar;C:\Users\Deep &apos;Nath&apos; Bagchi\.m2\repository\com\google\guava\guava\33.2.1-jre\guava-33.2.1-jre.jar;C:\Users\Deep &apos;Nath&apos; Bagchi\.m2\repository\com\google\guava\failureaccess\1.0.2\failureaccess-1.0.2.jar;C:\Users\Deep &apos;Nath&apos; Bagchi\.m2\repository\com\google\guava\listenablefuture\9999.0-empty-to-avoid-conflict-with-guava\listenablefuture-9999.0-empty-to-avoid-conflict-with-guava.jar;C:\Users\Deep &apos;Nath&apos; Bagchi\.m2\repository\org\checkerframework\checker-qual\3.42.0\checker-qual-3.42.0.jar;C:\Users\Deep &apos;Nath&apos; Bagchi\.m2\repository\com\google\errorprone\error_prone_annotations\2.26.1\error_prone_annotations-2.26.1.jar;C:\Users\Deep &apos;Nath&apos; Bagchi\.m2\repository\com\google\j2objc\j2objc-annotations\3.0.0\j2objc-annotations-3.0.0.jar;C:\Users\Deep &apos;Nath&apos; Bagchi\.m2\repository\org\hamcrest\hamcrest\2.2\hamcrest-2.2.jar;C:\Users\Deep &apos;Nath&apos; Bagchi\.m2\repository\io\rest-assured\rest-assured\5.5.0\rest-assured-5.5.0.jar;C:\Users\Deep &apos;Nath&apos; Bagchi\.m2\repository\org\apache\groovy\groovy\4.0.22\groovy-4.0.22.jar;C:\Users\Deep &apos;Nath&apos; Bagchi\.m2\repository\org\apache\groovy\groovy-xml\4.0.22\groovy-xml-4.0.22.jar;C:\Users\Deep &apos;Nath&apos; Bagchi\.m2\repository\org\apache\httpcomponents\httpclient\4.5.13\httpclient-4.5.13.jar;C:\Users\Deep &apos;Nath&apos; Bagchi\.m2\repository\org\apache\httpcomponents\httpcore\4.4.13\httpcore-4.4.13.jar;C:\Users\Deep &apos;Nath&apos; Bagchi\.m2\repository\commons-logging\commons-logging\1.2\commons-logging-1.2.jar;C:\Users\Deep &apos;Nath&apos; Bagchi\.m2\repository\commons-codec\commons-codec\1.11\commons-codec-1.11.jar;C:\Users\Deep &apos;Nath&apos; Bagchi\.m2\repository\org\apache\httpcomponents\httpmime\4.5.13\httpmime-4.5.13.jar;C:\Users\Deep &apos;Nath&apos; Bagchi\.m2\repository\org\ccil\cowan\tagsoup\tagsoup\1.2.1\tagsoup-1.2.1.jar;C:\Users\Deep &apos;Nath&apos; Bagchi\.m2\repository\io\rest-assured\xml-path\5.5.0\xml-path-5.5.0.jar;C:\Users\Deep &apos;Nath&apos; Bagchi\.m2\repository\org\everit\json\org.everit.json.schema\1.5.1\org.everit.json.schema-1.5.1.jar;C:\Users\Deep &apos;Nath&apos; Bagchi\.m2\repository\commons-validator\commons-validator\1.5.1\commons-validator-1.5.1.jar;C:\Users\Deep &apos;Nath&apos; Bagchi\.m2\repository\commons-beanutils\commons-beanutils\1.9.2\commons-beanutils-1.9.2.jar;C:\Users\Deep &apos;Nath&apos; Bagchi\.m2\repository\commons-digester\commons-digester\1.8.1\commons-digester-1.8.1.jar;C:\Users\Deep &apos;Nath&apos; Bagchi\.m2\repository\commons-collections\commons-collections\3.2.2\commons-collections-3.2.2.jar;"/>
    <property name="sun.cpu.endian" value="little"/>
    <property name="user.home" value="C:\Users\Deep &apos;Nath&apos; Bagchi"/>
    <property name="user.language" value="en"/>
    <property name="java.specification.vendor" value="Oracle Corporation"/>
    <property name="java.version.date" value="2024-07-16"/>
    <property name="java.home" value="C:\Program Files\Java\jdk-22"/>
    <property name="file.separator" value="\"/>
    <property name="basedir" value="G:\Eclipse_Workspace\Playwright-Java-API-Testing-main"/>
    <property name="java.vm.compressedOopsMode" value="32-bit"/>
    <property name="line.separator" value="&#10;"/>
    <property name="java.vm.specification.vendor" value="Oracle Corporation"/>
    <property name="java.specification.name" value="Java Platform API Specification"/>
    <property name="surefire.real.class.path" value="C:\Users\Deep &apos;Nath&apos; Bagchi\AppData\Local\Temp\surefire7278214291203716478\surefirebooter-20240818143152679_3.jar"/>
    <property name="user.script" value=""/>
    <property name="sun.management.compiler" value="HotSpot 64-Bit Tiered Compilers"/>
    <property name="java.runtime.version" value="22.0.2+9-70"/>
    <property name="user.name" value="Deep &apos;Nath&apos; Bagchi"/>
    <property name="stdout.encoding" value="Cp1252"/>
    <property name="path.separator" value=";"/>
    <property name="os.version" value="10.0"/>
    <property name="java.runtime.name" value="Java(TM) SE Runtime Environment"/>
    <property name="file.encoding" value="UTF-8"/>
    <property name="java.vm.name" value="Java HotSpot(TM) 64-Bit Server VM"/>
    <property name="localRepository" value="C:\Users\Deep &apos;Nath&apos; Bagchi\.m2\repository"/>
    <property name="java.vendor.url.bug" value="https://bugreport.java.com/bugreport/"/>
    <property name="java.io.tmpdir" value="C:\Users\DEEP&apos;N~1\AppData\Local\Temp\"/>
    <property name="java.version" value="22.0.2"/>
    <property name="user.dir" value="G:\Eclipse_Workspace\Playwright-Java-API-Testing-main"/>
    <property name="os.arch" value="amd64"/>
    <property name="java.vm.specification.name" value="Java Virtual Machine Specification"/>
    <property name="sun.os.patch.level" value=""/>
    <property name="native.encoding" value="Cp1252"/>
    <property name="java.library.path" value="C:\Program Files\Java\jdk-22\bin;C:\WINDOWS\Sun\Java\bin;C:\WINDOWS\system32;C:\WINDOWS;C:\Program Files\Common Files\Oracle\Java\javapath;C:\Program Files\Python312\Scripts\;C:\Program Files\Python312\;C:\WINDOWS\system32;C:\WINDOWS;C:\WINDOWS\System32\Wbem;C:\WINDOWS\System32\WindowsPowerShell\v1.0\;C:\WINDOWS\System32\OpenSSH\;C:\Program Files\nodejs\;C:\Program Files\Java\jdk-22\bin;C:\Program Files\apache-maven-3.9.8\bin;C:\Users\Deep &apos;Nath&apos; Bagchi\AppData\Local\Microsoft\WindowsApps;C:\Users\Deep &apos;Nath&apos; Bagchi\AppData\Local\Programs\Microsoft VS Code\bin;C:\Users\Deep &apos;Nath&apos; Bagchi\AppData\Roaming\npm;C:\Program Files\JetBrains\PyCharm Community Edition 2024.1.6\bin;."/>
    <property name="java.vm.info" value="mixed mode, sharing"/>
    <property name="stderr.encoding" value="Cp1252"/>
    <property name="java.vendor" value="Oracle Corporation"/>
    <property name="java.vm.version" value="22.0.2+9-70"/>
    <property name="sun.io.unicode.encoding" value="UnicodeLittle"/>
    <property name="java.class.version" value="66.0"/>
  </properties>
  <testcase name="getSpecificUserApiTest" classname="com.qa.api.tests.GET.GETAPICall" time="0.445">
    <system-out><![CDATA[https://reqres.in/api/users
response status code: 200
OK
----print api response with plain text----
{"page":1,"per_page":6,"total":12,"total_pages":2,"data":[{"id":1,"email":"george.bluth@reqres.in","first_name":"George","last_name":"Bluth","avatar":"https://reqres.in/img/faces/1-image.jpg"},{"id":2,"email":"janet.weaver@reqres.in","first_name":"Janet","last_name":"Weaver","avatar":"https://reqres.in/img/faces/2-image.jpg"},{"id":3,"email":"emma.wong@reqres.in","first_name":"Emma","last_name":"Wong","avatar":"https://reqres.in/img/faces/3-image.jpg"},{"id":4,"email":"eve.holt@reqres.in","first_name":"Eve","last_name":"Holt","avatar":"https://reqres.in/img/faces/4-image.jpg"},{"id":5,"email":"charles.morris@reqres.in","first_name":"Charles","last_name":"Morris","avatar":"https://reqres.in/img/faces/5-image.jpg"},{"id":6,"email":"tracey.ramos@reqres.in","first_name":"Tracey","last_name":"Ramos","avatar":"https://reqres.in/img/faces/6-image.jpg"}],"support":{"url":"https://reqres.in/#support-heading","text":"To keep ReqRes free, contributions towards server costs are appreciated!"}}
----print api json response----
{
  "page" : 1,
  "per_page" : 6,
  "total" : 12,
  "total_pages" : 2,
  "data" : [ {
    "id" : 1,
    "email" : "george.bluth@reqres.in",
    "first_name" : "George",
    "last_name" : "Bluth",
    "avatar" : "https://reqres.in/img/faces/1-image.jpg"
  }, {
    "id" : 2,
    "email" : "janet.weaver@reqres.in",
    "first_name" : "Janet",
    "last_name" : "Weaver",
    "avatar" : "https://reqres.in/img/faces/2-image.jpg"
  }, {
    "id" : 3,
    "email" : "emma.wong@reqres.in",
    "first_name" : "Emma",
    "last_name" : "Wong",
    "avatar" : "https://reqres.in/img/faces/3-image.jpg"
  }, {
    "id" : 4,
    "email" : "eve.holt@reqres.in",
    "first_name" : "Eve",
    "last_name" : "Holt",
    "avatar" : "https://reqres.in/img/faces/4-image.jpg"
  }, {
    "id" : 5,
    "email" : "charles.morris@reqres.in",
    "first_name" : "Charles",
    "last_name" : "Morris",
    "avatar" : "https://reqres.in/img/faces/5-image.jpg"
  }, {
    "id" : 6,
    "email" : "tracey.ramos@reqres.in",
    "first_name" : "Tracey",
    "last_name" : "Ramos",
    "avatar" : "https://reqres.in/img/faces/6-image.jpg"
  } ],
  "support" : {
    "url" : "https://reqres.in/#support-heading",
    "text" : "To keep ReqRes free, contributions towards server costs are appreciated!"
  }
}
====================================Response JSON SCHEMA Validation has started!!!================================================
Response JSON SCHEMA Validation was successfull!!!!
=====================================Response JSON SCHEMA Validation has been completed!!!==========================================
]]></system-out>
  </testcase>
  <testcase name="getUsersApiTest" classname="com.qa.api.tests.GET.GETAPICall" time="0.104">
    <system-out><![CDATA[response status code: 200
OK
----print api response with plain text----
{"page":1,"per_page":6,"total":12,"total_pages":2,"data":[{"id":1,"email":"george.bluth@reqres.in","first_name":"George","last_name":"Bluth","avatar":"https://reqres.in/img/faces/1-image.jpg"},{"id":2,"email":"janet.weaver@reqres.in","first_name":"Janet","last_name":"Weaver","avatar":"https://reqres.in/img/faces/2-image.jpg"},{"id":3,"email":"emma.wong@reqres.in","first_name":"Emma","last_name":"Wong","avatar":"https://reqres.in/img/faces/3-image.jpg"},{"id":4,"email":"eve.holt@reqres.in","first_name":"Eve","last_name":"Holt","avatar":"https://reqres.in/img/faces/4-image.jpg"},{"id":5,"email":"charles.morris@reqres.in","first_name":"Charles","last_name":"Morris","avatar":"https://reqres.in/img/faces/5-image.jpg"},{"id":6,"email":"tracey.ramos@reqres.in","first_name":"Tracey","last_name":"Ramos","avatar":"https://reqres.in/img/faces/6-image.jpg"}],"support":{"url":"https://reqres.in/#support-heading","text":"To keep ReqRes free, contributions towards server costs are appreciated!"}}
----print api json response----
{
  "page" : 1,
  "per_page" : 6,
  "total" : 12,
  "total_pages" : 2,
  "data" : [ {
    "id" : 1,
    "email" : "george.bluth@reqres.in",
    "first_name" : "George",
    "last_name" : "Bluth",
    "avatar" : "https://reqres.in/img/faces/1-image.jpg"
  }, {
    "id" : 2,
    "email" : "janet.weaver@reqres.in",
    "first_name" : "Janet",
    "last_name" : "Weaver",
    "avatar" : "https://reqres.in/img/faces/2-image.jpg"
  }, {
    "id" : 3,
    "email" : "emma.wong@reqres.in",
    "first_name" : "Emma",
    "last_name" : "Wong",
    "avatar" : "https://reqres.in/img/faces/3-image.jpg"
  }, {
    "id" : 4,
    "email" : "eve.holt@reqres.in",
    "first_name" : "Eve",
    "last_name" : "Holt",
    "avatar" : "https://reqres.in/img/faces/4-image.jpg"
  }, {
    "id" : 5,
    "email" : "charles.morris@reqres.in",
    "first_name" : "Charles",
    "last_name" : "Morris",
    "avatar" : "https://reqres.in/img/faces/5-image.jpg"
  }, {
    "id" : 6,
    "email" : "tracey.ramos@reqres.in",
    "first_name" : "Tracey",
    "last_name" : "Ramos",
    "avatar" : "https://reqres.in/img/faces/6-image.jpg"
  } ],
  "support" : {
    "url" : "https://reqres.in/#support-heading",
    "text" : "To keep ReqRes free, contributions towards server costs are appreciated!"
  }
}
----print api url----
https://reqres.in/api/users
====================================Response JSON SCHEMA Validation has started!!!================================================
Response JSON SCHEMA Validation was successfull!!!!
=====================================Response JSON SCHEMA Validation has been completed!!!==========================================
----print response headers----
{date=Sun, 18 Aug 2024 09:02:00 GMT, content-type=application/json; charset=utf-8, transfer-encoding=chunked, connection=close, report-to={"group":"heroku-nel","max_age":3600,"endpoints":[{"url":"https://nel.heroku.com/reports?ts=1723806732&sid=c4c9725f-1ab0-44d8-820f-430df2718e11&s=i%2F6%2Ff5opbAZURXfdTGimOZxERdVOK8ErLcTKjgzIMuI%3D"}]}, reporting-endpoints=heroku-nel=https://nel.heroku.com/reports?ts=1723806732&sid=c4c9725f-1ab0-44d8-820f-430df2718e11&s=i%2F6%2Ff5opbAZURXfdTGimOZxERdVOK8ErLcTKjgzIMuI%3D, nel={"report_to":"heroku-nel","max_age":3600,"success_fraction":0.005,"failure_fraction":0.05,"response_headers":["Via"]}, x-powered-by=Express, access-control-allow-origin=*, etag=W/"3e4-2RLXvr5wTg9YQ6aH95CkYoFNuO8", via=1.1 vegur, cache-control=max-age=14400, cf-cache-status=HIT, age=805, vary=Accept-Encoding, server=cloudflare, cf-ray=8b50b8f6bdb217b7-MAA, content-encoding=br}
]]></system-out>
  </testcase>
</testsuite>